{
    "images":
    {
        "transparent":
        {
            "image" : "textures:menu/blacktransparent.png",
            "posX" : -50,
            "posY" : -70,
            "width" : 100,
            "height" : 140,
            "alignment" : "center"
        },

        "minecraft":
        {
            "image" : "textures:menu/minecraft.png",
            "posX" : -53,
            "posY" : -70,
            "width" : 108,
            "height" : 16,
            "alignment" : "center"
        }
    },

    "buttons":
    {
        "singleplayer":
        {
            "text" : "menu.singleplayer",
            "posX" : -50,
            "posY" : -50,
            "width" : 100,
            "height" : 20,
            "alignment" : "center",
            "texture" : "textures:menu/button.png",
            "shadow" : false
        },

        "multiplayer":
        {
            "text" : "menu.multiplayer",
            "posX" : -50,
            "posY" : -30,
            "width" : 100,
            "height" : 20,
            "alignment" : "center",
            "texture" : "textures:menu/button.png",
            "shadow" : false
        },

        "mods":
        {
            "text" : "fml.menu.mods",
            "posX" : -50,
            "posY" : -10,
            "width" : 100,
            "height" : 20,
            "alignment" : "center",
            "texture" : "textures:menu/button.png",
            "shadow" : false
        },

        "options":
        {
            "text" : "menu.options",
            "posX" : -50,
            "posY" : 10,
            "width" : 100,
            "height" : 20,
            "alignment" : "center",
            "texture" : "textures:menu/button.png",
            "shadow" : false
        },

        "language":
        {
            "text" : "Language",
            "posX" : -50,
            "posY" : 30,
            "width" : 100,
            "height" : 20,
            "alignment" : "center",
            "texture" : "textures:menu/button.png",
            "shadow" : false
        },

        "quit":
        {
            "text" : "menu.quit",
            "posX" : -50,
            "posY" : 50,
            "width" : 100,
            "height" : 20,
            "alignment" : "center",
            "texture" : "textures:menu/button.png",
            "shadow" : false
        }
    },

    "texts":
    {
        "mojang":
        {
            "text" : "",
            "posX" : -197,
            "posY" : -10,
            "color" : -1,
            "alignment" : "bottom_right"
        }
    },

    "other":
    {
        "background":
        {
            "image" : "textures:menu/hill.png",
            "mode" : "fill"
        }
    }
}
